ml_getting_started – AlexPGroot
…
Code

sum(is.na(data_tbl)) # check for NA values

[1] 0

Code

# Change chr to factor
data_cols <- colnames(data_tbl[c("Class", "menopause", "node_caps", "breast", "breast_quad", "irradiat")])
data_tbl[data_cols] <- lapply(data_tbl[data_cols], factor)
data_tbl

# A tibble: 286 × 10
   Class         age   menopause tumor_size inv_nodes node_caps deg_malig breast
   <fct>         <chr> <fct>     <chr>      <chr>     <fct>         <int> <fct> 
 1 no-recurrenc… 30-39 premeno   30-34      0-2       no                3 left  
 2 no-recurrenc… 40-49 premeno   20-24      0-2       no                2 right 
 3 no-recurrenc… 40-49 premeno   20-24      0-2       no                2 left  
 4 no-recurrenc… 60-69 ge40      15-19      0-2       no                2 right 
 5 no-recurrenc… 40-49 premeno   0-4        0-2       no                2 right 
 6 no-recurrenc… 60-69 ge40      15-19      0-2       no                2 left  
 7 no-recurrenc… 50-59 premeno   25-29      0-2       no                2 left  
 8 no-recurrenc… 60-69 ge40      20-24      0-2       no                1 left  
 9 no-recurrenc… 40-49 premeno   50-54      0-2       no                2 left  
10 no-recurrenc… 40-49 premeno   20-24      0-2       no                2 right 
# ℹ 276 more rows
# ℹ 2 more variables: breast_quad <fct>, irradiat <fct>
…
