5 C elegans | index
…
theme_set(theme_bw())

data_0040 <-
  readxl::read_excel(here("data_raw/data_0040/CE.LIQ.FLOW.062_Tidydata.xlsx"))
data_0040

## # A tibble: 360 × 34
##    plateRow plateColumn vialNr dropCode expType    expReplicate expName        
##    <lgl>    <lgl>        <dbl> <chr>    <chr>             <dbl> <chr>          
##  1 NA       NA               1 a        experiment            3 CE.LIQ.FLOW.062
##  2 NA       NA               1 b        experiment            3 CE.LIQ.FLOW.062
##  3 NA       NA               1 c        experiment            3 CE.LIQ.FLOW.062
##  4 NA       NA               1 d        experiment            3 CE.LIQ.FLOW.062
##  5 NA       NA               1 e        experiment            3 CE.LIQ.FLOW.062
##  6 NA       NA               2 a        experiment            3 CE.LIQ.FLOW.062
##  7 NA       NA               2 b        experiment            3 CE.LIQ.FLOW.062
##  8 NA       NA               2 c        experiment            3 CE.LIQ.FLOW.062
##  9 NA       NA               2 d        experiment            3 CE.LIQ.FLOW.062
## 10 NA       NA               2 e        experiment            3 CE.LIQ.FLOW.062
## # ℹ 350 more rows
## # ℹ 27 more variables: expDate <dttm>, expResearcher <chr>, expTime <dbl>,
## #   expUnit <chr>, expVolumeCounted <dbl>, RawData <dbl>, compCASRN <chr>,
## #   compName <chr>, compConcentration <chr>, compUnit <chr>,
## #   compDelivery <chr>, compVehicle <chr>, elegansStrain <chr>,
## #   elegansInput <dbl>, bacterialStrain <chr>, bacterialTreatment <chr>,
## #   bacterialOD600 <dbl>, bacterialConcX <dbl>, bacterialVolume <dbl>, …
…
# normalize the data:
# if the data is negative control, set value to 1
# else divide raw data by negative control mean to create value as a fraction
data_0040_temp <- data_0040_tidy
data_0040_normalized <- data_0040_temp %>%
  mutate(
    NormalizedData = if_else(expType == "controlNegative", 1, RawData / negative_control_mean)
  )

# print the normalized dataset
print(data_0040_normalized)

## # A tibble: 360 × 35
##    plateRow plateColumn vialNr dropCode expType    expReplicate expName        
##    <lgl>    <lgl>        <dbl> <chr>    <chr>             <dbl> <chr>          
##  1 NA       NA               1 a        experiment            3 CE.LIQ.FLOW.062
##  2 NA       NA               1 b        experiment            3 CE.LIQ.FLOW.062
##  3 NA       NA               1 c        experiment            3 CE.LIQ.FLOW.062
##  4 NA       NA               1 d        experiment            3 CE.LIQ.FLOW.062
##  5 NA       NA               1 e        experiment            3 CE.LIQ.FLOW.062
##  6 NA       NA               2 a        experiment            3 CE.LIQ.FLOW.062
##  7 NA       NA               2 b        experiment            3 CE.LIQ.FLOW.062
##  8 NA       NA               2 c        experiment            3 CE.LIQ.FLOW.062
##  9 NA       NA               2 d        experiment            3 CE.LIQ.FLOW.062
## 10 NA       NA               2 e        experiment            3 CE.LIQ.FLOW.062
## # ℹ 350 more rows
## # ℹ 28 more variables: expDate <dttm>, expResearcher <chr>, expTime <dbl>,
## #   expUnit <chr>, expVolumeCounted <dbl>, RawData <dbl>, compCASRN <chr>,
## #   compName <chr>, compConcentration <dbl>, compUnit <chr>,
## #   compDelivery <chr>, compVehicle <chr>, elegansStrain <chr>,
## #   elegansInput <dbl>, bacterialStrain <chr>, bacterialTreatment <chr>,
## #   bacterialOD600 <dbl>, bacterialConcX <dbl>, bacterialVolume <dbl>, …
…
